{
	"info": {
		"_postman_id": "f5680588-e9a9-4b9c-8498-9114f517e4f9",
		"name": "API Auth Laravel",
		"schema": "https://schema.getpostman.com/json/collection/v2.1.0/collection.json"
	},
	"item": [
		{
			"name": "Auth",
			"item": [
				{
					"name": "Login",
					"request": {
						"method": "POST",
						"header": [],
						"body": {
							"mode": "raw",
							"raw": "{\n    \"email\": \"userdemo@gmail.com\",\n    \"password\": \"user123\"\n}",
							"options": {
								"raw": {
									"language": "json"
								}
							}
						},
						"url": {
							"raw": "{{host}}auth/login",
							"host": [
								"{{host}}auth"
							],
							"path": [
								"login"
							]
						}
					},
					"response": []
				},
				{
					"name": "Get the authenticated User",
					"request": {
						"auth": {
							"type": "bearer",
							"bearer": [
								{
									"key": "token",
									"value": "{{token}}",
									"type": "string"
								},
								{
									"key": "password",
									"value": "{{token_super_admin}}",
									"type": "string"
								}
							]
						},
						"method": "GET",
						"header": [],
						"url": {
							"raw": "{{host}}auth/me",
							"host": [
								"{{host}}auth"
							],
							"path": [
								"me"
							]
						}
					},
					"response": []
				},
				{
					"name": "Logout",
					"request": {
						"auth": {
							"type": "bearer",
							"bearer": [
								{
									"key": "token",
									"value": "{{token}}",
									"type": "string"
								},
								{
									"key": "password",
									"value": "{{token_super_admin}}",
									"type": "string"
								}
							]
						},
						"method": "GET",
						"header": [],
						"url": {
							"raw": "{{host}}auth/logout",
							"host": [
								"{{host}}auth"
							],
							"path": [
								"logout"
							]
						}
					},
					"response": []
				}
			]
		}
	]
}