{
	"id": "edcdee32-9197-4a56-8ddd-94273e293e34",
	"name": "API Auth Laravel - local",
	"values": [
		{
			"key": "host",
			"value": "http://localhost:8000/api/",
			"enabled": true
		},
		{
			"key": "token",
			"value": "",
			"enabled": true
		}
	],
	"_postman_variable_scope": "environment",
	"_postman_exported_at": "2021-03-02T20:39:55.634Z",
	"_postman_exported_using": "Postman/7.36.5"
}